\relax 
\providecommand\hyper@newdestlabel[2]{}
\@writefile{nav}{\headcommand {\slideentry {0}{0}{1}{1/1}{}{0}}}
\@writefile{nav}{\headcommand {\beamer@framepages {1}{1}}}
\@writefile{toc}{\beamer@sectionintoc {1}{Grundideen von Datenstrukturen}{2}{0}{1}}
\@writefile{nav}{\headcommand {\beamer@sectionpages {1}{1}}}
\@writefile{nav}{\headcommand {\beamer@subsectionpages {1}{1}}}
\@writefile{nav}{\headcommand {\sectionentry {1}{Daten\-strukturen}{2}{Grundideen von Datenstrukturen}{0}}}
\@writefile{nav}{\headcommand {\slideentry {1}{0}{1}{2/7}{}{0}}}
\@writefile{nav}{\headcommand {\beamer@framepages {2}{7}}}
\@writefile{nav}{\headcommand {\slideentry {1}{0}{2}{8/8}{}{0}}}
\@writefile{nav}{\headcommand {\beamer@framepages {8}{8}}}
\@writefile{nav}{\headcommand {\slideentry {1}{0}{3}{9/9}{}{0}}}
\@writefile{nav}{\headcommand {\beamer@framepages {9}{9}}}
\@writefile{toc}{\beamer@sectionintoc {2}{JSON}{10}{0}{2}}
\@writefile{nav}{\headcommand {\beamer@sectionpages {2}{9}}}
\@writefile{nav}{\headcommand {\beamer@subsectionpages {2}{9}}}
\@writefile{nav}{\headcommand {\sectionentry {2}{JSON}{10}{JSON}{0}}}
\@writefile{nav}{\headcommand {\slideentry {2}{0}{1}{10/10}{}{0}}}
\@writefile{nav}{\headcommand {\beamer@framepages {10}{10}}}
\@writefile{toc}{\beamer@subsectionintoc {2}{1}{Theorie/Syntax}{11}{0}{2}}
\@writefile{nav}{\headcommand {\beamer@subsectionpages {10}{10}}}
\@writefile{nav}{\headcommand {\beamer@subsectionentry {0}{2}{1}{11}{Theorie/Syntax}}}
\@writefile{nav}{\headcommand {\slideentry {2}{1}{1}{11/11}{Theorie/Syntax}{0}}}
\@writefile{nav}{\headcommand {\beamer@framepages {11}{11}}}
\@writefile{toc}{\beamer@subsectionintoc {2}{2}{Anwendungsaufgaben}{12}{0}{2}}
\@writefile{nav}{\headcommand {\beamer@subsectionpages {11}{11}}}
\@writefile{nav}{\headcommand {\beamer@subsectionentry {0}{2}{2}{12}{Anwendungsaufgaben}}}
\@writefile{nav}{\headcommand {\slideentry {2}{2}{1}{12/12}{Anwendungsaufgaben}{0}}}
\@writefile{nav}{\headcommand {\beamer@framepages {12}{12}}}
\@writefile{toc}{\beamer@sectionintoc {3}{XML}{13}{0}{3}}
\@writefile{nav}{\headcommand {\beamer@sectionpages {10}{12}}}
\@writefile{nav}{\headcommand {\beamer@subsectionpages {12}{12}}}
\@writefile{nav}{\headcommand {\sectionentry {3}{XML}{13}{XML}{0}}}
\@writefile{nav}{\headcommand {\slideentry {3}{0}{1}{13/13}{}{0}}}
\@writefile{nav}{\headcommand {\beamer@framepages {13}{13}}}
\@writefile{toc}{\beamer@subsectionintoc {3}{1}{Theorie/Syntax}{14}{0}{3}}
\@writefile{nav}{\headcommand {\beamer@subsectionpages {13}{13}}}
\@writefile{nav}{\headcommand {\beamer@subsectionentry {0}{3}{1}{14}{Theorie/Syntax}}}
\@writefile{nav}{\headcommand {\slideentry {3}{1}{1}{14/14}{Theorie/Syntax}{0}}}
\@writefile{nav}{\headcommand {\beamer@framepages {14}{14}}}
\@writefile{toc}{\beamer@subsectionintoc {3}{2}{Anwendungsaufgaben}{15}{0}{3}}
\@writefile{nav}{\headcommand {\beamer@subsectionpages {14}{14}}}
\@writefile{nav}{\headcommand {\beamer@subsectionentry {0}{3}{2}{15}{Anwendungsaufgaben}}}
\@writefile{nav}{\headcommand {\slideentry {3}{2}{1}{15/15}{Anwendungsaufgaben}{0}}}
\@writefile{nav}{\headcommand {\beamer@framepages {15}{15}}}
\@writefile{toc}{\beamer@sectionintoc {4}{Vergleich JSON--XML}{16}{0}{4}}
\@writefile{nav}{\headcommand {\beamer@sectionpages {13}{15}}}
\@writefile{nav}{\headcommand {\beamer@subsectionpages {15}{15}}}
\@writefile{nav}{\headcommand {\sectionentry {4}{Vergleich JSON--XML}{16}{Vergleich JSON--XML}{0}}}
\@writefile{nav}{\headcommand {\slideentry {4}{0}{1}{16/16}{}{0}}}
\@writefile{nav}{\headcommand {\beamer@framepages {16}{16}}}
\@writefile{nav}{\headcommand {\slideentry {4}{0}{2}{17/17}{}{0}}}
\@writefile{nav}{\headcommand {\beamer@framepages {17}{17}}}
\@writefile{toc}{\beamer@sectionintoc {5}{TEI}{18}{0}{5}}
\@writefile{nav}{\headcommand {\beamer@sectionpages {16}{17}}}
\@writefile{nav}{\headcommand {\beamer@subsectionpages {16}{17}}}
\@writefile{nav}{\headcommand {\sectionentry {5}{TEI}{18}{TEI}{0}}}
\@writefile{nav}{\headcommand {\slideentry {5}{0}{1}{18/18}{}{0}}}
\@writefile{nav}{\headcommand {\beamer@framepages {18}{18}}}
\@writefile{toc}{\beamer@subsectionintoc {5}{1}{Idee}{19}{0}{5}}
\@writefile{nav}{\headcommand {\beamer@subsectionpages {18}{18}}}
\@writefile{nav}{\headcommand {\beamer@subsectionentry {0}{5}{1}{19}{Idee}}}
\@writefile{nav}{\headcommand {\slideentry {5}{1}{1}{19/19}{Idee}{0}}}
\@writefile{nav}{\headcommand {\beamer@framepages {19}{19}}}
\@writefile{toc}{\beamer@subsectionintoc {5}{2}{Die wichtigsten Tags}{20}{0}{5}}
\@writefile{nav}{\headcommand {\beamer@subsectionpages {19}{19}}}
\@writefile{nav}{\headcommand {\beamer@subsectionentry {0}{5}{2}{20}{Die wichtigsten Tags}}}
\@writefile{nav}{\headcommand {\slideentry {5}{2}{1}{20/20}{Die wichtigsten Tags}{0}}}
\@writefile{nav}{\headcommand {\beamer@framepages {20}{20}}}
\@writefile{toc}{\beamer@subsectionintoc {5}{3}{Anwendungsaufgaben}{21}{0}{5}}
\@writefile{nav}{\headcommand {\beamer@subsectionpages {20}{20}}}
\@writefile{nav}{\headcommand {\beamer@subsectionentry {0}{5}{3}{21}{Anwendungsaufgaben}}}
\@writefile{nav}{\headcommand {\slideentry {5}{3}{1}{21/22}{Anwendungsaufgaben}{0}}}
\@writefile{nav}{\headcommand {\beamer@framepages {21}{22}}}
\@setckpt{inhalt}{
\setcounter{page}{23}
\setcounter{equation}{0}
\setcounter{enumi}{0}
\setcounter{enumii}{0}
\setcounter{enumiii}{0}
\setcounter{enumiv}{0}
\setcounter{footnote}{0}
\setcounter{mpfootnote}{0}
\setcounter{beamerpauses}{1}
\setcounter{bookmark@seq@number}{12}
\setcounter{lecture}{0}
\setcounter{part}{0}
\setcounter{section}{5}
\setcounter{subsection}{3}
\setcounter{subsubsection}{0}
\setcounter{subsectionslide}{1}
\setcounter{framenumber}{16}
\setcounter{figure}{0}
\setcounter{table}{0}
\setcounter{parentequation}{0}
\setcounter{theorem}{0}
\setcounter{lstnumber}{1}
\setcounter{section@level}{0}
\setcounter{lstlisting}{0}
}
