\relax 
\providecommand\hyper@newdestlabel[2]{}
\@writefile{nav}{\headcommand {\slideentry {0}{0}{1}{1/1}{}{0}}}
\@writefile{nav}{\headcommand {\beamer@framepages {1}{1}}}
\@writefile{toc}{\beamer@sectionintoc {1}{Ziele von Datenstrukturen}{2}{0}{1}}
\@writefile{nav}{\headcommand {\beamer@sectionpages {1}{1}}}
\@writefile{nav}{\headcommand {\beamer@subsectionpages {1}{1}}}
\@writefile{nav}{\headcommand {\sectionentry {1}{Grundideen}{2}{Ziele von Datenstrukturen}{0}}}
\@writefile{nav}{\headcommand {\slideentry {1}{0}{1}{2/2}{}{0}}}
\@writefile{nav}{\headcommand {\beamer@framepages {2}{2}}}
\@writefile{toc}{\beamer@subsectionintoc {1}{1}{Alltagsbeispiele}{3}{0}{1}}
\@writefile{nav}{\headcommand {\beamer@subsectionpages {2}{2}}}
\@writefile{nav}{\headcommand {\beamer@subsectionentry {0}{1}{1}{3}{Alltagsbeispiele}}}
\@writefile{nav}{\headcommand {\slideentry {1}{1}{1}{3/3}{Alltagsbeispiele}{0}}}
\@writefile{nav}{\headcommand {\beamer@framepages {3}{3}}}
\@writefile{toc}{\beamer@subsectionintoc {1}{2}{Demonstration Nutzen}{4}{0}{1}}
\@writefile{nav}{\headcommand {\beamer@subsectionpages {3}{3}}}
\@writefile{nav}{\headcommand {\beamer@subsectionentry {0}{1}{2}{4}{Demonstration Nutzen}}}
\@writefile{nav}{\headcommand {\slideentry {1}{2}{1}{4/4}{Demonstration Nutzen}{0}}}
\@writefile{nav}{\headcommand {\beamer@framepages {4}{4}}}
\@writefile{toc}{\beamer@sectionintoc {2}{JSON}{5}{0}{2}}
\@writefile{nav}{\headcommand {\beamer@sectionpages {2}{4}}}
\@writefile{nav}{\headcommand {\beamer@subsectionpages {4}{4}}}
\@writefile{nav}{\headcommand {\sectionentry {2}{JSON}{5}{JSON}{0}}}
\@writefile{nav}{\headcommand {\slideentry {2}{0}{1}{5/5}{}{0}}}
\@writefile{nav}{\headcommand {\beamer@framepages {5}{5}}}
\@writefile{toc}{\beamer@subsectionintoc {2}{1}{Theorie/Syntax}{6}{0}{2}}
\@writefile{nav}{\headcommand {\beamer@subsectionpages {5}{5}}}
\@writefile{nav}{\headcommand {\beamer@subsectionentry {0}{2}{1}{6}{Theorie/Syntax}}}
\@writefile{nav}{\headcommand {\slideentry {2}{1}{1}{6/6}{Theorie/Syntax}{0}}}
\@writefile{nav}{\headcommand {\beamer@framepages {6}{6}}}
\@writefile{toc}{\beamer@subsectionintoc {2}{2}{Anwendungsaufgabe}{7}{0}{2}}
\@writefile{nav}{\headcommand {\beamer@subsectionpages {6}{6}}}
\@writefile{nav}{\headcommand {\beamer@subsectionentry {0}{2}{2}{7}{Anwendungsaufgabe}}}
\@writefile{nav}{\headcommand {\slideentry {2}{2}{1}{7/7}{Anwendungsaufgabe}{0}}}
\@writefile{nav}{\headcommand {\beamer@framepages {7}{7}}}
\@writefile{toc}{\beamer@sectionintoc {3}{XML}{8}{0}{3}}
\@writefile{nav}{\headcommand {\beamer@sectionpages {5}{7}}}
\@writefile{nav}{\headcommand {\beamer@subsectionpages {7}{7}}}
\@writefile{nav}{\headcommand {\sectionentry {3}{XML}{8}{XML}{0}}}
\@writefile{nav}{\headcommand {\slideentry {3}{0}{1}{8/8}{}{0}}}
\@writefile{nav}{\headcommand {\beamer@framepages {8}{8}}}
\@writefile{toc}{\beamer@subsectionintoc {3}{1}{Theorie/Syntax}{9}{0}{3}}
\@writefile{nav}{\headcommand {\beamer@subsectionpages {8}{8}}}
\@writefile{nav}{\headcommand {\beamer@subsectionentry {0}{3}{1}{9}{Theorie/Syntax}}}
\@writefile{nav}{\headcommand {\slideentry {3}{1}{1}{9/9}{Theorie/Syntax}{0}}}
\@writefile{nav}{\headcommand {\beamer@framepages {9}{9}}}
\@writefile{toc}{\beamer@subsectionintoc {3}{2}{Anwendungsaufgabe}{10}{0}{3}}
\@writefile{nav}{\headcommand {\beamer@subsectionpages {9}{9}}}
\@writefile{nav}{\headcommand {\beamer@subsectionentry {0}{3}{2}{10}{Anwendungsaufgabe}}}
\@writefile{nav}{\headcommand {\slideentry {3}{2}{1}{10/10}{Anwendungsaufgabe}{0}}}
\@writefile{nav}{\headcommand {\beamer@framepages {10}{10}}}
\@writefile{toc}{\beamer@sectionintoc {4}{Vergleich JSON--XML}{11}{0}{4}}
\@writefile{nav}{\headcommand {\beamer@sectionpages {8}{10}}}
\@writefile{nav}{\headcommand {\beamer@subsectionpages {10}{10}}}
\@writefile{nav}{\headcommand {\sectionentry {4}{Vergleich JSON--XML}{11}{Vergleich JSON--XML}{0}}}
\@writefile{nav}{\headcommand {\slideentry {4}{0}{1}{11/11}{}{0}}}
\@writefile{nav}{\headcommand {\beamer@framepages {11}{11}}}
\@writefile{nav}{\headcommand {\slideentry {4}{0}{2}{12/12}{}{0}}}
\@writefile{nav}{\headcommand {\beamer@framepages {12}{12}}}
\@writefile{toc}{\beamer@sectionintoc {5}{TEI}{13}{0}{5}}
\@writefile{nav}{\headcommand {\beamer@sectionpages {11}{12}}}
\@writefile{nav}{\headcommand {\beamer@subsectionpages {11}{12}}}
\@writefile{nav}{\headcommand {\sectionentry {5}{TEI}{13}{TEI}{0}}}
\@writefile{nav}{\headcommand {\slideentry {5}{0}{1}{13/13}{}{0}}}
\@writefile{nav}{\headcommand {\beamer@framepages {13}{13}}}
\@writefile{toc}{\beamer@subsectionintoc {5}{1}{Theorie}{14}{0}{5}}
\@writefile{nav}{\headcommand {\beamer@subsectionpages {13}{13}}}
\@writefile{nav}{\headcommand {\beamer@subsectionentry {0}{5}{1}{14}{Theorie}}}
\@writefile{nav}{\headcommand {\slideentry {5}{1}{1}{14/14}{Theorie}{0}}}
\@writefile{nav}{\headcommand {\beamer@framepages {14}{14}}}
\@writefile{toc}{\beamer@subsectionintoc {5}{2}{Die wichtigsten Tags}{15}{0}{5}}
\@writefile{nav}{\headcommand {\beamer@subsectionpages {14}{14}}}
\@writefile{nav}{\headcommand {\beamer@subsectionentry {0}{5}{2}{15}{Die wichtigsten Tags}}}
\@writefile{nav}{\headcommand {\slideentry {5}{2}{1}{15/15}{Die wichtigsten Tags}{0}}}
\@writefile{nav}{\headcommand {\beamer@framepages {15}{15}}}
\@writefile{toc}{\beamer@subsectionintoc {5}{3}{Beispiel???}{16}{0}{5}}
\@writefile{nav}{\headcommand {\beamer@subsectionpages {15}{15}}}
\@writefile{nav}{\headcommand {\beamer@subsectionentry {0}{5}{3}{16}{Beispiel???}}}
\@writefile{nav}{\headcommand {\slideentry {5}{3}{1}{16/16}{Beispiel???}{0}}}
\@writefile{nav}{\headcommand {\beamer@framepages {16}{16}}}
\@writefile{toc}{\beamer@subsectionintoc {5}{4}{Anwendungsaufgabe}{17}{0}{5}}
\@writefile{nav}{\headcommand {\beamer@subsectionpages {16}{16}}}
\@writefile{nav}{\headcommand {\beamer@subsectionentry {0}{5}{4}{17}{Anwendungsaufgabe}}}
\@writefile{nav}{\headcommand {\slideentry {5}{4}{1}{17/17}{Anwendungsaufgabe}{0}}}
\@writefile{nav}{\headcommand {\beamer@framepages {17}{17}}}
\@writefile{toc}{\beamer@sectionintoc {6}{Nützliche Hilfsmittel}{18}{0}{6}}
\@writefile{nav}{\headcommand {\beamer@sectionpages {13}{17}}}
\@writefile{nav}{\headcommand {\beamer@subsectionpages {17}{17}}}
\@writefile{nav}{\headcommand {\sectionentry {6}{Nützliche Hilfsmittel}{18}{Nützliche Hilfsmittel}{0}}}
\@writefile{nav}{\headcommand {\slideentry {6}{0}{1}{18/18}{}{0}}}
\@writefile{nav}{\headcommand {\beamer@framepages {18}{18}}}
\@setckpt{inhalt}{
\setcounter{page}{19}
\setcounter{equation}{0}
\setcounter{enumi}{0}
\setcounter{enumii}{0}
\setcounter{enumiii}{0}
\setcounter{enumiv}{0}
\setcounter{footnote}{0}
\setcounter{mpfootnote}{0}
\setcounter{beamerpauses}{1}
\setcounter{bookmark@seq@number}{16}
\setcounter{lecture}{0}
\setcounter{part}{0}
\setcounter{section}{6}
\setcounter{subsection}{0}
\setcounter{subsubsection}{0}
\setcounter{subsectionslide}{1}
\setcounter{framenumber}{18}
\setcounter{figure}{0}
\setcounter{table}{0}
\setcounter{parentequation}{0}
\setcounter{theorem}{0}
\setcounter{lstnumber}{1}
\setcounter{section@level}{0}
\setcounter{lstlisting}{0}
}
