\relax 
\providecommand\hyper@newdestlabel[2]{}
\providecommand\HyperFirstAtBeginDocument{\AtBeginDocument}
\HyperFirstAtBeginDocument{\ifx\hyper@anchor\@undefined
\global\let\oldcontentsline\contentsline
\gdef\contentsline#1#2#3#4{\oldcontentsline{#1}{#2}{#3}}
\global\let\oldnewlabel\newlabel
\gdef\newlabel#1#2{\newlabelxx{#1}#2}
\gdef\newlabelxx#1#2#3#4#5#6{\oldnewlabel{#1}{{#2}{#3}}}
\AtEndDocument{\ifx\hyper@anchor\@undefined
\let\contentsline\oldcontentsline
\let\newlabel\oldnewlabel
\fi}
\fi}
\global\let\hyper@last\relax 
\gdef\HyperFirstAtBeginDocument#1{#1}
\providecommand\HyField@AuxAddToFields[1]{}
\providecommand\HyField@AuxAddToCoFields[2]{}
\providecommand\babel@aux[2]{}
\@nameuse{bbl@beforestart}
\catcode `"\active 
\babel@aux{ngerman}{}
\@writefile{nav}{\headcommand {\slideentry {0}{0}{1}{1/1}{}{0}}}
\@writefile{nav}{\headcommand {\beamer@framepages {1}{1}}}
\@writefile{toc}{\beamer@sectionintoc {1}{Eigentliche Präsentation}{2}{0}{1}}
\@writefile{nav}{\headcommand {\beamer@sectionpages {1}{1}}}
\@writefile{nav}{\headcommand {\beamer@subsectionpages {1}{1}}}
\@writefile{nav}{\headcommand {\sectionentry {1}{los!}{2}{Eigentliche Präsentation}{0}}}
\@writefile{toc}{\beamer@sectionintoc {2}{Listingtests}{2}{0}{2}}
\@writefile{nav}{\headcommand {\beamer@sectionpages {2}{1}}}
\@writefile{nav}{\headcommand {\beamer@subsectionpages {2}{1}}}
\@writefile{nav}{\headcommand {\sectionentry {2}{Listingtests}{2}{Listingtests}{0}}}
\@writefile{toc}{\beamer@subsectionintoc {2}{1}{BLABLA}{2}{0}{2}}
\@writefile{nav}{\headcommand {\beamer@subsectionpages {2}{1}}}
\@writefile{nav}{\headcommand {\beamer@subsectionentry {0}{2}{1}{2}{BLABLA}}}
\@writefile{nav}{\headcommand {\slideentry {2}{1}{1}{2/2}{BLABLA}{0}}}
\@writefile{nav}{\headcommand {\beamer@framepages {2}{2}}}
\@writefile{toc}{\beamer@subsectionintoc {2}{2}{LABLABLAB}{3}{0}{2}}
\@writefile{nav}{\headcommand {\beamer@subsectionpages {2}{2}}}
\@writefile{nav}{\headcommand {\beamer@subsectionentry {0}{2}{2}{3}{LABLABLAB}}}
\@writefile{nav}{\headcommand {\slideentry {2}{2}{1}{3/4}{LABLABLAB}{0}}}
\@writefile{nav}{\headcommand {\beamer@framepages {3}{4}}}
\@writefile{lol}{\contentsline {lstlisting}{\numberline {1}Titöl}}
\@writefile{nav}{\headcommand {\slideentry {2}{2}{2}{5/5}{LABLABLAB}{0}}}
\@writefile{nav}{\headcommand {\beamer@framepages {5}{5}}}
\@writefile{nav}{\headcommand {\beamer@partpages {1}{5}}}
\@writefile{nav}{\headcommand {\beamer@subsectionpages {3}{5}}}
\@writefile{nav}{\headcommand {\beamer@sectionpages {2}{5}}}
\@writefile{nav}{\headcommand {\beamer@documentpages {5}}}
\@writefile{nav}{\headcommand {\gdef \inserttotalframenumber {4}}}
\gdef \@abspage@last{5}
