\babel@toc {ngerman}{}
\beamer@sectionintoc {1}{Eigentliche Präsentation}{2}{0}{1}
\beamer@sectionintoc {2}{Listingtests}{2}{0}{2}
\beamer@subsectionintoc {2}{1}{BLABLA}{2}{0}{2}
\beamer@subsectionintoc {2}{2}{LABLABLAB}{3}{0}{2}
