\relax 
\providecommand\hyper@newdestlabel[2]{}
\@writefile{toc}{\beamer@sectionintoc {1}{Grundideen von Datenstrukturen}{5}{0}{1}}
\@writefile{nav}{\headcommand {\beamer@sectionpages {1}{4}}}
\@writefile{nav}{\headcommand {\beamer@subsectionpages {1}{4}}}
\@writefile{nav}{\headcommand {\sectionentry {1}{Daten\-strukturen}{5}{Grundideen von Datenstrukturen}{0}}}
\@writefile{nav}{\headcommand {\slideentry {1}{0}{1}{5/10}{}{0}}}
\@writefile{nav}{\headcommand {\beamer@framepages {5}{10}}}
\@writefile{nav}{\headcommand {\slideentry {1}{0}{2}{11/15}{}{0}}}
\@writefile{nav}{\headcommand {\beamer@framepages {11}{15}}}
\@writefile{nav}{\headcommand {\slideentry {1}{0}{3}{16/21}{}{0}}}
\@writefile{nav}{\headcommand {\beamer@framepages {16}{21}}}
\@writefile{nav}{\headcommand {\slideentry {1}{0}{4}{22/27}{}{0}}}
\@writefile{nav}{\headcommand {\beamer@framepages {22}{27}}}
\@writefile{nav}{\headcommand {\slideentry {1}{0}{5}{28/31}{}{0}}}
\@writefile{nav}{\headcommand {\beamer@framepages {28}{31}}}
\@setckpt{grundideen}{
\setcounter{page}{32}
\setcounter{equation}{0}
\setcounter{enumi}{0}
\setcounter{enumii}{0}
\setcounter{enumiii}{0}
\setcounter{enumiv}{0}
\setcounter{footnote}{0}
\setcounter{mpfootnote}{0}
\setcounter{beamerpauses}{1}
\setcounter{bookmark@seq@number}{1}
\setcounter{lecture}{0}
\setcounter{part}{0}
\setcounter{section}{1}
\setcounter{subsection}{0}
\setcounter{subsubsection}{0}
\setcounter{subsectionslide}{5}
\setcounter{framenumber}{7}
\setcounter{figure}{0}
\setcounter{table}{0}
\setcounter{parentequation}{0}
\setcounter{theorem}{0}
\setcounter{lstnumber}{1}
\setcounter{section@level}{0}
\setcounter{lstlisting}{0}
}
