\relax 
\providecommand\hyper@newdestlabel[2]{}
\@writefile{toc}{\beamer@sectionintoc {2}{JSON}{32}{0}{2}}
\@writefile{nav}{\headcommand {\beamer@sectionpages {5}{31}}}
\@writefile{nav}{\headcommand {\beamer@subsectionpages {5}{31}}}
\@writefile{nav}{\headcommand {\sectionentry {2}{JSON}{32}{JSON}{0}}}
\@writefile{nav}{\headcommand {\slideentry {2}{0}{1}{32/33}{}{0}}}
\@writefile{nav}{\headcommand {\beamer@framepages {32}{33}}}
\@writefile{toc}{\beamer@subsectionintoc {2}{1}{Theorie/Syntax}{34}{0}{2}}
\@writefile{nav}{\headcommand {\beamer@subsectionpages {32}{33}}}
\@writefile{nav}{\headcommand {\beamer@subsectionentry {0}{2}{1}{34}{Theorie/Syntax}}}
\@writefile{nav}{\headcommand {\slideentry {2}{1}{1}{34/42}{Theorie/Syntax}{0}}}
\@writefile{nav}{\headcommand {\beamer@framepages {34}{42}}}
\@writefile{nav}{\headcommand {\slideentry {2}{1}{2}{43/43}{Theorie/Syntax}{0}}}
\@writefile{nav}{\headcommand {\beamer@framepages {43}{43}}}
\@writefile{nav}{\headcommand {\slideentry {2}{1}{3}{44/44}{Theorie/Syntax}{0}}}
\@writefile{nav}{\headcommand {\beamer@framepages {44}{44}}}
\@writefile{nav}{\headcommand {\slideentry {2}{1}{4}{45/45}{Theorie/Syntax}{0}}}
\@writefile{nav}{\headcommand {\beamer@framepages {45}{45}}}
\@writefile{nav}{\headcommand {\slideentry {2}{1}{5}{46/46}{Theorie/Syntax}{0}}}
\@writefile{nav}{\headcommand {\beamer@framepages {46}{46}}}
\@writefile{nav}{\headcommand {\slideentry {2}{1}{6}{47/47}{Theorie/Syntax}{0}}}
\@writefile{nav}{\headcommand {\beamer@framepages {47}{47}}}
\@writefile{nav}{\headcommand {\slideentry {2}{1}{7}{48/48}{Theorie/Syntax}{0}}}
\@writefile{nav}{\headcommand {\beamer@framepages {48}{48}}}
\@writefile{toc}{\beamer@subsectionintoc {2}{2}{Anwendungsaufgaben}{49}{0}{2}}
\@writefile{nav}{\headcommand {\beamer@subsectionpages {34}{48}}}
\@writefile{nav}{\headcommand {\beamer@subsectionentry {0}{2}{2}{49}{Anwendungsaufgaben}}}
\@writefile{nav}{\headcommand {\slideentry {2}{2}{1}{49/52}{Anwendungsaufgaben}{0}}}
\@writefile{nav}{\headcommand {\beamer@framepages {49}{52}}}
\@setckpt{json}{
\setcounter{page}{53}
\setcounter{equation}{0}
\setcounter{enumi}{0}
\setcounter{enumii}{0}
\setcounter{enumiii}{0}
\setcounter{enumiv}{0}
\setcounter{footnote}{0}
\setcounter{mpfootnote}{0}
\setcounter{beamerpauses}{1}
\setcounter{bookmark@seq@number}{4}
\setcounter{lecture}{0}
\setcounter{part}{0}
\setcounter{section}{2}
\setcounter{subsection}{2}
\setcounter{subsubsection}{0}
\setcounter{subsectionslide}{1}
\setcounter{framenumber}{16}
\setcounter{figure}{0}
\setcounter{table}{0}
\setcounter{parentequation}{0}
\setcounter{theorem}{0}
\setcounter{lstnumber}{10}
\setcounter{section@level}{0}
\setcounter{lstlisting}{0}
}
