\relax 
\providecommand\hyper@newdestlabel[2]{}
\@writefile{toc}{\beamer@sectionintoc {5}{TEI}{73}{0}{5}}
\@writefile{nav}{\headcommand {\beamer@sectionpages {71}{72}}}
\@writefile{nav}{\headcommand {\beamer@subsectionpages {71}{72}}}
\@writefile{nav}{\headcommand {\sectionentry {5}{TEI}{73}{TEI}{0}}}
\@writefile{toc}{\beamer@subsectionintoc {5}{1}{Idee}{73}{0}{5}}
\@writefile{nav}{\headcommand {\beamer@subsectionpages {73}{72}}}
\@writefile{nav}{\headcommand {\beamer@subsectionentry {0}{5}{1}{73}{Idee}}}
\@writefile{nav}{\headcommand {\slideentry {5}{1}{1}{73/77}{Idee}{0}}}
\@writefile{nav}{\headcommand {\beamer@framepages {73}{77}}}
\@writefile{toc}{\beamer@subsectionintoc {5}{2}{Die wichtigsten Tags}{78}{0}{5}}
\@writefile{nav}{\headcommand {\beamer@subsectionpages {73}{77}}}
\@writefile{nav}{\headcommand {\beamer@subsectionentry {0}{5}{2}{78}{Die wichtigsten Tags}}}
\@writefile{nav}{\headcommand {\slideentry {5}{2}{1}{78/79}{Die wichtigsten Tags}{0}}}
\@writefile{nav}{\headcommand {\beamer@framepages {78}{79}}}
\@writefile{toc}{\beamer@subsectionintoc {5}{3}{Anwendungsaufgaben}{80}{0}{5}}
\@writefile{nav}{\headcommand {\beamer@subsectionpages {78}{79}}}
\@writefile{nav}{\headcommand {\beamer@subsectionentry {0}{5}{3}{80}{Anwendungsaufgaben}}}
\@writefile{nav}{\headcommand {\slideentry {5}{3}{1}{80/81}{Anwendungsaufgaben}{0}}}
\@writefile{nav}{\headcommand {\beamer@framepages {80}{81}}}
\@setckpt{tei}{
\setcounter{page}{82}
\setcounter{equation}{0}
\setcounter{enumi}{0}
\setcounter{enumii}{0}
\setcounter{enumiii}{0}
\setcounter{enumiv}{0}
\setcounter{footnote}{0}
\setcounter{mpfootnote}{0}
\setcounter{beamerpauses}{1}
\setcounter{bookmark@seq@number}{12}
\setcounter{lecture}{0}
\setcounter{part}{0}
\setcounter{section}{5}
\setcounter{subsection}{3}
\setcounter{subsubsection}{0}
\setcounter{subsectionslide}{1}
\setcounter{framenumber}{28}
\setcounter{figure}{0}
\setcounter{table}{0}
\setcounter{parentequation}{0}
\setcounter{theorem}{0}
\setcounter{lstnumber}{3}
\setcounter{section@level}{0}
\setcounter{lstlisting}{0}
}
