\relax 
\providecommand\hyper@newdestlabel[2]{}
\@writefile{toc}{\beamer@sectionintoc {4}{Vergleich JSON--XML}{71}{0}{4}}
\@writefile{nav}{\headcommand {\beamer@sectionpages {53}{70}}}
\@writefile{nav}{\headcommand {\beamer@subsectionpages {69}{70}}}
\@writefile{nav}{\headcommand {\sectionentry {4}{Vergleich JSON--XML}{71}{Vergleich JSON--XML}{0}}}
\@writefile{nav}{\headcommand {\slideentry {4}{0}{1}{71/72}{}{0}}}
\@writefile{nav}{\headcommand {\beamer@framepages {71}{72}}}
\@setckpt{vgl-json-xml}{
\setcounter{page}{73}
\setcounter{equation}{0}
\setcounter{enumi}{0}
\setcounter{enumii}{0}
\setcounter{enumiii}{0}
\setcounter{enumiv}{0}
\setcounter{footnote}{0}
\setcounter{mpfootnote}{0}
\setcounter{beamerpauses}{1}
\setcounter{bookmark@seq@number}{8}
\setcounter{lecture}{0}
\setcounter{part}{0}
\setcounter{section}{4}
\setcounter{subsection}{0}
\setcounter{subsubsection}{0}
\setcounter{subsectionslide}{1}
\setcounter{framenumber}{25}
\setcounter{figure}{0}
\setcounter{table}{0}
\setcounter{parentequation}{0}
\setcounter{theorem}{0}
\setcounter{lstnumber}{3}
\setcounter{section@level}{0}
\setcounter{lstlisting}{0}
}
