\relax 
\providecommand\hyper@newdestlabel[2]{}
\@writefile{toc}{\beamer@sectionintoc {3}{XML}{53}{0}{3}}
\@writefile{nav}{\headcommand {\beamer@sectionpages {32}{52}}}
\@writefile{nav}{\headcommand {\beamer@subsectionpages {49}{52}}}
\@writefile{nav}{\headcommand {\sectionentry {3}{XML}{53}{XML}{0}}}
\@writefile{nav}{\headcommand {\slideentry {3}{0}{1}{53/57}{}{0}}}
\@writefile{nav}{\headcommand {\beamer@framepages {53}{57}}}
\@writefile{toc}{\beamer@subsectionintoc {3}{1}{Theorie/Syntax}{58}{0}{3}}
\@writefile{nav}{\headcommand {\beamer@subsectionpages {53}{57}}}
\@writefile{nav}{\headcommand {\beamer@subsectionentry {0}{3}{1}{58}{Theorie/Syntax}}}
\@writefile{nav}{\headcommand {\slideentry {3}{1}{1}{58/61}{Theorie/Syntax}{0}}}
\@writefile{nav}{\headcommand {\beamer@framepages {58}{61}}}
\@writefile{nav}{\headcommand {\slideentry {3}{1}{2}{62/62}{Theorie/Syntax}{0}}}
\@writefile{nav}{\headcommand {\beamer@framepages {62}{62}}}
\@writefile{nav}{\headcommand {\slideentry {3}{1}{3}{63/64}{Theorie/Syntax}{0}}}
\@writefile{nav}{\headcommand {\beamer@framepages {63}{64}}}
\@writefile{nav}{\headcommand {\slideentry {3}{1}{4}{65/65}{Theorie/Syntax}{0}}}
\@writefile{nav}{\headcommand {\beamer@framepages {65}{65}}}
\@writefile{nav}{\headcommand {\slideentry {3}{1}{5}{66/67}{Theorie/Syntax}{0}}}
\@writefile{nav}{\headcommand {\beamer@framepages {66}{67}}}
\@writefile{nav}{\headcommand {\slideentry {3}{1}{6}{68/68}{Theorie/Syntax}{0}}}
\@writefile{nav}{\headcommand {\beamer@framepages {68}{68}}}
\@writefile{toc}{\beamer@subsectionintoc {3}{2}{Anwendungsaufgaben}{69}{0}{3}}
\@writefile{nav}{\headcommand {\beamer@subsectionpages {58}{68}}}
\@writefile{nav}{\headcommand {\beamer@subsectionentry {0}{3}{2}{69}{Anwendungsaufgaben}}}
\@writefile{nav}{\headcommand {\slideentry {3}{2}{1}{69/70}{Anwendungsaufgaben}{0}}}
\@writefile{nav}{\headcommand {\beamer@framepages {69}{70}}}
\@setckpt{xml}{
\setcounter{page}{71}
\setcounter{equation}{0}
\setcounter{enumi}{0}
\setcounter{enumii}{0}
\setcounter{enumiii}{0}
\setcounter{enumiv}{0}
\setcounter{footnote}{0}
\setcounter{mpfootnote}{0}
\setcounter{beamerpauses}{1}
\setcounter{bookmark@seq@number}{7}
\setcounter{lecture}{0}
\setcounter{part}{0}
\setcounter{section}{3}
\setcounter{subsection}{2}
\setcounter{subsubsection}{0}
\setcounter{subsectionslide}{1}
\setcounter{framenumber}{24}
\setcounter{figure}{0}
\setcounter{table}{0}
\setcounter{parentequation}{0}
\setcounter{theorem}{0}
\setcounter{lstnumber}{3}
\setcounter{section@level}{0}
\setcounter{lstlisting}{0}
}
